module saFinal

go 1.15

require (
	github.com/dgrijalva/jwt-go v3.2.0+incompatible
	github.com/gin-gonic/gin v1.6.3
	github.com/golang/protobuf v1.4.2
	github.com/jackc/pgx/v4 v4.10.1
	google.golang.org/grpc v1.36.0
	google.golang.org/protobuf v1.25.0
)
